Freiluftkino Rehberge,AM STRAND,DI 14.08. 21:00,http://freiluftkino-rehberge.de/
Pompeji - Freiluftkino Ostkreuz,AUS DEM NICHTS,14.08.2018 21:00,https://www.kinoheld.de/kino-berlin/freiluftkino-pompeji-open-air-am-ostkreuz-berlin/shows/movies?mode=widget&cid=MjYwOTQzNg&layout=movies&rb=0&design=kinos-am-ostkreuz
Freiluftkino Insel im Cassiopeia,Ocean's 8 (OmU),14. AUG,http://www.freiluftkino-insel.de/html/program
Freiluftkino Friedrichshain,3 TAGE IN QUIBERON,DI 14.08. 21:00,http://www.freiluftkino-berlin.de/eine_woche.php
Freiluftkino Kreuzberg,120 BPM,DI 14.08. 21:00,http://www.freiluftkino-kreuzberg.de/
Freiluftkino Hasenheide,Loving Vincent OmU,14.08.2018 21:00,http://freiluftkino-hasenheide.de/2018/index.php/programm
