Freiluftkino Rehberge,INTERNATIONAL OCEAN FILM TOUR (OMU),FR 16.08. 21:00,http://freiluftkino-rehberge.de/
Freiluftkino Friedrichshain,SINGMIT! BERLIN,SO 12.05. 16:00,http://www.freiluftkino-berlin.de/eine_woche.php
Freiluftkino Kreuzberg,ERÖFFNUNG GEWINNERFILM DEUTSCHER FILMPREIS 2019,SA 04.05. 21:00,http://www.freiluftkino-kreuzberg.de/
